Processing layerfMRI scan logs
…
df_files

## # A tibble: 72 x 5
##    filename                             sub   run   ses   task 
##    <chr>                                <chr> <chr> <chr> <chr>
##  1 S02_session1_set1_run1-Set1_run1.log S02   1     1     1    
##  2 S02_session1_set1_run2-Set1_run2.log S02   2     1     1    
##  3 S02_session1_set2_run1-Set2_run1.log S02   1     1     2    
##  4 S02_session1_set2_run2-Set2_run2.log S02   2     1     2    
##  5 S02_session2_set3_run1-Set3_run1.log S02   1     2     3    
##  6 S02_session2_set3_run2-Set3_run2.log S02   2     2     3    
##  7 S02_session2_set4_run1-Set4_run1.log S02   1     2     4    
##  8 S02_session2_set4_run2-Set4_run2.log S02   2     2     4    
##  9 S03_session1_set1_run1-Set1_run1.log S03   1     1     1    
## 10 S03_session1_set1_run2-Set1_run2.log S03   2     1     1    
## #  with 62 more rows
…
# Checking that a given movie covers the same numba of time points
# in all subs (the var_nTR should be always 0)
df %>% 
  group_by(name) %>%
  summarise(
    nTR_min = min(nTR),
    nTR_max = max(nTR),
    var_nTR = var(nTR),
    .groups = "drop"
  )

## # A tibble: 36 x 4
##    name             nTR_min nTR_max var_nTR
##    <chr>              <dbl>   <dbl>   <dbl>
##  1 M12letterD.avi        10      10       0
##  2 M13lightD.avi         12      12       0
##  3 M14nailD.avi          12      12       0
##  4 M15juiceD.avi         15      15       0
##  5 M16pencilD.avi        20      20       0
##  6 M17pillowD.avi        11      11       0
##  7 M18removerD.avi       16      16       0
##  8 M19sandwichD.avi      19      19       0
##  9 M1ballonD.avi         12      12       0
## 10 M21toastD.avi         16      16       0
## #  with 26 more rows
…
Save the whole thing

write.csv(df, paste0(bd,"/timings.csv"))

df

## # A tibble: 648 x 11
##    filename sub   run   ses   task  name  Duration   nTR Code  muvi_start_volu
##    <chr>    <chr> <chr> <chr> <chr> <chr> <chr>    <dbl> <chr>            <dbl>
##  1 S02_ses S02   1     1     1     S1ba 500083      12 Acti                6
##  2 S02_ses S02   1     1     1     S3br 790039      19 Acti               21
##  3 S02_ses S02   1     1     1     M1ba 510010      12 Acti               43
##  4 S02_ses S02   1     1     1     S6ci 719969      18 Acti               58
##  5 S02_ses S02   1     1     1     M3br 790039      19 Acti               78
##  6 S02_ses S02   1     1     1     S7fl 820070      20 Acti              100
##  7 S02_ses S02   1     1     1     M6ci 720053      18 Acti              122
##  8 S02_ses S02   1     1     1     S8fr 1120036     27 Acti              142
##  9 S02_ses S02   1     1     1     M7fl 810059      20 Acti              172
## 10 S02_ses S02   1     1     1     M8fr 1120036     27 Acti              194
## #  with 638 more rows, and 1 more variable: muvi_end_volume <dbl>
