dual ISC development v2 - falling in love with nest
…
  # Purrr everything into a list of tibbles and retain only D,Z values 
  # inside JU ROIs
  vals <- tibble(Zthr_idx, Z, D, JU) %>%
    rename(idx = Zthr_idx) %>% 
    filter(JU > 0)

  return(vals)
}

df_idx <- get_Z_D_JU_vals(zthr, Z_nii, D_nii, JU_nii)
df_idx

## # A tibble: 3,172 x 4
##       idx     Z     D    JU
##     <int> <dbl> <dbl> <dbl>
##  1 505308  3.60 0.904    31
##  2 505337  2.86 0.786    31
##  3 505338  2.54 0.731    31
##  4 505367  3.37 0.589    31
##  5 512086  2.37 0.718    31
##  6 518777  2.64 0.906    31
##  7 518778  2.33 0.716    31
##  8 518806  4.89 0.863    31
##  9 525497  3.56 0.796    31
## 10 525498  2.36 0.764    31
## #  with 3,162 more rows
…
df_idx

## # A tibble: 60 x 3
##       JU D_bins idx_voxels
##    <dbl>  <int> <list>    
##  1    13      1 <int [11]>
##  2    13      2 <int [25]>
##  3    13      3 <int [38]>
##  4    13      4 <int [47]>
##  5    13      5 <int [55]>
##  6    13      6 <int [76]>
##  7    13      7 <int [70]>
##  8    13      8 <int [69]>
##  9    13      9 <int [78]>
## 10    13     10 <int [18]>
## #  with 50 more rows

really? I need to inject the whole df_idx for each row of df?

fuck yeah!!! :O) finally I got it!

# test here
mov <- tibble(muvi = c("muvi_1","muvi_2","muvi_3")) %>% mutate(shebang = list(df_idx))
mov %>% unnest(shebang)

## # A tibble: 180 x 4
##    muvi      JU D_bins idx_voxels
##    <chr>  <dbl>  <int> <list>    
##  1 muvi_1    13      1 <int [11]>
##  2 muvi_1    13      2 <int [25]>
##  3 muvi_1    13      3 <int [38]>
##  4 muvi_1    13      4 <int [47]>
##  5 muvi_1    13      5 <int [55]>
##  6 muvi_1    13      6 <int [76]>
##  7 muvi_1    13      7 <int [70]>
##  8 muvi_1    13      8 <int [69]>
##  9 muvi_1    13      9 <int [78]>
## 10 muvi_1    13     10 <int [18]>
## #  with 170 more rows

# real deal here
pf <- df %>% 
  mutate(shebang = list(df_idx) ) %>% 
  unnest(shebang)

pf

## # A tibble: 300 x 11
##    start_TR end_TR muvi   task   run sub   ses   contrast    JU D_bins
##       <int>  <int> <fct> <int> <int> <chr> <chr> <chr>    <dbl>  <int>
##  1       42     54 M1ba     1     1 sub_ ses_ thresh_    13      1
##  2       42     54 M1ba     1     1 sub_ ses_ thresh_    13      2
##  3       42     54 M1ba     1     1 sub_ ses_ thresh_    13      3
##  4       42     54 M1ba     1     1 sub_ ses_ thresh_    13      4
##  5       42     54 M1ba     1     1 sub_ ses_ thresh_    13      5
##  6       42     54 M1ba     1     1 sub_ ses_ thresh_    13      6
##  7       42     54 M1ba     1     1 sub_ ses_ thresh_    13      7
##  8       42     54 M1ba     1     1 sub_ ses_ thresh_    13      8
##  9       42     54 M1ba     1     1 sub_ ses_ thresh_    13      9
## 10       42     54 M1ba     1     1 sub_ ses_ thresh_    13     10
## #  with 290 more rows, and 1 more variable: idx_voxels <list>
…
# create an index of JU ROIs where there are sig voxels, to retain only the necessary
# rows in df_BIG
sig_JU <- df_idx %>% distinct(JU) %>% pull()

df_BIG <- df_BIG %>% 
  filter(JU_numba %in% sig_JU) %>% 
  arrange(JU_numba)

df_BIG

## # A tibble: 300 x 11
##      bin JU_numba muvi  start_TR end_TR  task   run sub   ses   contrast JU_name
##    <int>    <dbl> <fct>    <int>  <int> <int> <int> <chr> <chr> <chr>    <chr>  
##  1     1       13 M1ba       42     54     1     1 sub_ ses_ thresh_ GM_Bro
##  2     2       13 M1ba       42     54     1     1 sub_ ses_ thresh_ GM_Bro
##  3     3       13 M1ba       42     54     1     1 sub_ ses_ thresh_ GM_Bro
##  4     4       13 M1ba       42     54     1     1 sub_ ses_ thresh_ GM_Bro
##  5     5       13 M1ba       42     54     1     1 sub_ ses_ thresh_ GM_Bro
##  6     6       13 M1ba       42     54     1     1 sub_ ses_ thresh_ GM_Bro
##  7     7       13 M1ba       42     54     1     1 sub_ ses_ thresh_ GM_Bro
##  8     8       13 M1ba       42     54     1     1 sub_ ses_ thresh_ GM_Bro
##  9     9       13 M1ba       42     54     1     1 sub_ ses_ thresh_ GM_Bro
## 10    10       13 M1ba       42     54     1     1 sub_ ses_ thresh_ GM_Bro
## #  with 290 more rows
…
shebang <- tibble(
  taskrun = c("task1_run1","task1_run2",
              "task2_run1","task2_run2",
              "task3_run1","task3_run2",
              "task4_run1","task4_run2")
) %>% 
  mutate(contrast = list(c("thresh_zstat1","thresh_zstat2"))) %>% unnest(contrast) %>% 
  mutate(movie = list(map_chr(1:10, ~ paste("movie_", .x))) ) %>% unnest(movie) %>% 
  mutate(JU = list(map_chr(1:5, ~ paste("BA_", .x)  ))) %>%  unnest(JU) %>% 
  mutate(bin = list(1:10)) %>% unnest(bin)

shebang

## # A tibble: 8,000 x 5
##    taskrun    contrast      movie    JU      bin
##    <chr>      <chr>         <chr>    <chr> <int>
##  1 task1_run1 thresh_zstat1 movie_ 1 BA_ 1     1
##  2 task1_run1 thresh_zstat1 movie_ 1 BA_ 1     2
##  3 task1_run1 thresh_zstat1 movie_ 1 BA_ 1     3
##  4 task1_run1 thresh_zstat1 movie_ 1 BA_ 1     4
##  5 task1_run1 thresh_zstat1 movie_ 1 BA_ 1     5
##  6 task1_run1 thresh_zstat1 movie_ 1 BA_ 1     6
##  7 task1_run1 thresh_zstat1 movie_ 1 BA_ 1     7
##  8 task1_run1 thresh_zstat1 movie_ 1 BA_ 1     8
##  9 task1_run1 thresh_zstat1 movie_ 1 BA_ 1     9
## 10 task1_run1 thresh_zstat1 movie_ 1 BA_ 1    10
## #  with 7,990 more rows
…
